ej1_entrega/rand_num_t.vcd
$date
	Mon May 10 04:06:05 2021
$end
$version
	Icarus Verilog
$end
$timescale
	1ps
$end
$scope module top $end
$var wire 1 ! \$1 $end
$var wire 1 " \$11 $end
$var wire 1 # \$13 $end
$var wire 6 $ \$15 [5:0] $end
$var wire 1 % \$18 $end
$var wire 1 & \$20 $end
$var wire 1 ' \$22 $end
$var wire 1 ( \$24 $end
$var wire 1 ) \$26 $end
$var wire 1 * \$28 $end
$var wire 1 + \$3 $end
$var wire 1 , \$5 $end
$var wire 1 - \$7 $end
$var wire 1 . \$9 $end
$var wire 5 / a__data [4:0] $end
$var wire 1 0 a__ready $end
$var wire 1 1 a__valid $end
$var wire 5 2 b__data [4:0] $end
$var wire 1 3 b__ready $end
$var wire 1 4 b__valid $end
$var wire 1 5 clk $end
$var wire 1 6 r__ready $end
$var wire 1 7 rst $end
$var wire 6 8 \$16 [5:0] $end
$var reg 1 9 initial $end
$var reg 5 : r__data [4:0] $end
$var reg 5 ; \r__data$next [4:0] $end
$var reg 1 < r__valid $end
$var reg 1 = \r__valid$next $end
$upscope $end
$enddefinitions $end
#0
$dumpvars
0=
0<
b0 ;
b0 :
09
bx 8
17
z6
15
z4
13
bz 2
z1
10
bz /
x.
x-
x,
x+
1*
0)
1(
1'
0&
1%
bx $
x#
x"
0!
$end
#5000
05
#10000
b1110 ;
1=
1#
1-
1.
1+
1"
1,
07
11
b101110 $
b101110 8
b10000 /
14
b11110 2
16
15
#15000
05
#20000
b10101 ;
b1001 /
b10101 $
b10101 8
b1100 2
1=
1)
0(
1&
1!
0%
b1110 :
1<
15
#25000
05
#30000
b11101 ;
b1 /
b11101 $
b11101 8
b11100 2
b10101 :
15
#35000
05
#40000
b11 ;
b100 /
b100011 $
b100011 8
b11111 2
b11101 :
15
#45000
05
#50000
b1101 ;
b11001 /
b101101 $
b101101 8
b10100 2
b11 :
15
#55000
05
#60000
b100 ;
b10110 /
b100100 $
b100100 8
b1110 2
b1101 :
15
#65000
05
#70000
b10111 ;
b10001 /
b10111 $
b10111 8
b110 2
b100 :
15
#75000
05
#80000
b0 ;
b1000 /
b100000 $
b100000 8
b11000 2
b10111 :
15
#85000
05
#90000
b10000 ;
b110000 $
b110000 8
b11000 /
b0 :
15
#95000
05
#100000
b1010 ;
b11011 /
b101010 $
b101010 8
b1111 2
b10000 :
15
#105000
05
#110000
b1100 ;
b10101 /
b101100 $
b101100 8
b10111 2
b1010 :
15
#115000
05
#120000
b1110 ;
b10110 /
b101110 $
b101110 8
b11000 2
b1100 :
15
#125000
05
#130000
b111 ;
b100 /
b111 $
b111 8
b11 2
b1110 :
15
#135000
05
#140000
b10010 ;
b1101 /
b10010 $
b10010 8
b101 2
b111 :
15
#145000
05
#150000
b1101 ;
b10000 /
b101101 $
b101101 8
b11101 2
b10010 :
15
#155000
05
#160000
b10011 ;
b101 /
b10011 $
b10011 8
b1110 2
b1101 :
15
#165000
05
#170000
b1000 ;
b11100 /
b101000 $
b101000 8
b1100 2
b10011 :
15
#175000
05
#180000
b110 ;
b100 /
b110 $
b110 8
b10 2
b1000 :
15
#185000
05
#190000
b1 ;
b11010 /
b100001 $
b100001 8
b111 2
b110 :
15
#195000
05
#200000
b101 ;
b1111 /
b100101 $
b100101 8
b10110 2
b1 :
15
#205000
05
#210000
b10100 /
b100101 $
b100101 8
b10001 2
b101 :
15
#215000
05
#220000
b11010 ;
b10101 /
b11010 $
b11010 8
b101 2
15
#225000
05
#230000
b11100 ;
b10100 /
b11100 $
b11100 8
b1000 2
b11010 :
15
#235000
05
#240000
b11111 ;
b1110 /
b11111 $
b11111 8
b10001 2
b11100 :
15
#245000
05
#250000
b10011 ;
b1001 /
b10011 $
b10011 8
b1010 2
b11111 :
15
#255000
05
#260000
b11000 ;
b10000 /
b11000 $
b11000 8
b1000 2
b10011 :
15
#265000
05
#270000
b10101 ;
b10100 /
b10101 $
b10101 8
b1 2
b11000 :
15
#275000
05
#280000
b11101 ;
b101 /
b11101 $
b11101 8
b11000 2
b10101 :
15
#285000
05
#290000
b11111 ;
b11111 /
b11111 $
b11111 8
b0 2
b11101 :
15
#295000
05
#300000
b11 ;
b11001 /
b100011 $
b100011 8
b1010 2
b11111 :
15
#305000
05
#310000
b11011 ;
b11000 /
b11011 $
b11011 8
b11 2
b11 :
15
#315000
05
#320000
b11 ;
b1 /
b11 $
b11 8
b10 2
b11011 :
15
#325000
05
#330000
b11001 ;
b10101 /
b11001 $
b11001 8
b100 2
b11 :
15
#335000
05
#340000
b0 ;
b11011 /
b100000 $
b100000 8
b101 2
b11001 :
15
#345000
05
#350000
b1010 ;
b0 /
b1010 $
b1010 8
b1010 2
b0 :
15
#355000
05
#360000
b11101 ;
b11000 /
b11101 $
b11101 8
b101 2
b1010 :
15
#365000
05
#370000
b11000 ;
b11001 /
b111000 $
b111000 8
b11111 2
b11101 :
15
#375000
05
#380000
b1100 ;
b10000 /
b101100 $
b101100 8
b11100 2
b11000 :
15
#385000
05
#390000
b1 ;
b11001 /
b100001 $
b100001 8
b1000 2
b1100 :
15
#395000
05
#400000
b10100 ;
b10 /
b10100 $
b10100 8
b10010 2
b1 :
15
#405000
05
#410000
b10 ;
b10111 /
b100010 $
b100010 8
b1011 2
b10100 :
15
#415000
05
#420000
b1010 ;
b1111 /
b101010 $
b101010 8
b11011 2
b10 :
15
#425000
05
#430000
b10001 ;
b1011 /
b10001 $
b10001 8
b110 2
b1010 :
15
#435000
05
#440000
b1111 ;
b1100 /
b1111 $
b1111 8
b11 2
b10001 :
15
#445000
05
#450000
b1010 ;
b10000 /
b101010 $
b101010 8
b11010 2
b1111 :
15
#455000
05
#460000
b10010 ;
b10111 /
b110010 $
b110010 8
b11011 2
b1010 :
15
#465000
05
#470000
b1010 ;
b100 /
b1010 $
b1010 8
b110 2
b10010 :
15
#475000
05
#480000
b1011 ;
b1011 $
b1011 8
b101 /
b1010 :
15
#485000
05
#490000
b11101 ;
b10101 /
b11101 $
b11101 8
b1000 2
b1011 :
15
#495000
05
#500000
b11011 ;
b1 /
b11011 $
b11011 8
b11010 2
b11101 :
15
#505000
05
#510000
b1110 ;
b10111 /
b101110 $
b101110 8
b10111 2
b11011 :
15
#515000
05
#520000
b1111 ;
b10000 /
b101111 $
b101111 8
b11111 2
b1110 :
15
#525000
05
#530000
b110 ;
b11010 /
b100110 $
b100110 8
b1100 2
b1111 :
15
#535000
05
#540000
b10100 ;
b11110 /
b110100 $
b110100 8
b10110 2
b110 :
15
#545000
05
#550000
b11011 ;
b11101 /
b111011 $
b111011 8
b11110 2
b10100 :
15
#555000
05
#560000
b1100 ;
b1 /
b1100 $
b1100 8
b1011 2
b11011 :
15
#565000
05
#570000
b110 ;
b11000 /
b100110 $
b100110 8
b1110 2
b1100 :
15
#575000
05
#580000
b10100 ;
b101 /
b10100 $
b10100 8
b1111 2
b110 :
15
#585000
05
#590000
b10001 ;
b1000 /
b10001 $
b10001 8
b1001 2
b10100 :
15
#595000
05
#600000
b10000 ;
b11001 /
b110000 $
b110000 8
b10111 2
b10001 :
15
#605000
05
#610000
b1101 ;
b0 /
b1101 $
b1101 8
b1101 2
b10000 :
15
#615000
05
#620000
b10111 ;
b11001 /
b110111 $
b110111 8
b11110 2
b1101 :
15
#625000
05
#630000
b10110 ;
b110 /
b10110 $
b10110 8
b10000 2
b10111 :
15
#635000
05
#640000
b1101 ;
b1011 /
b1101 $
b1101 8
b10 2
b10110 :
15
#645000
05
#650000
b11111 ;
b1000 /
b11111 $
b11111 8
b10111 2
b1101 :
15
#655000
05
#660000
b10001 ;
b1001 /
b10001 $
b10001 8
b1000 2
b11111 :
15
#665000
05
#670000
b111 ;
b10101 /
b100111 $
b100111 8
b10010 2
b10001 :
15
#675000
05
#680000
b11000 ;
b101 /
b11000 $
b11000 8
b10011 2
b111 :
15
#685000
05
#690000
b111 ;
b100 /
b111 $
b111 8
b11 2
b11000 :
15
#695000
05
#700000
b10111 ;
b1001 /
b10111 $
b10111 8
b1110 2
b111 :
15
#705000
05
#710000
b100 ;
b11001 /
b100100 $
b100100 8
b1011 2
b10111 :
15
#715000
05
#720000
b10000 ;
b10000 /
b10000 $
b10000 8
b0 2
b100 :
15
#725000
05
#730000
b1001 ;
b10110 /
b101001 $
b101001 8
b10011 2
b10000 :
15
#735000
05
#740000
b11000 ;
b11010 /
b111000 $
b111000 8
b11110 2
b1001 :
15
#745000
05
#750000
b1001 ;
b111 /
b1001 $
b1001 8
b10 2
b11000 :
15
#755000
05
#760000
b10101 ;
b10010 /
b10101 $
b10101 8
b11 2
b1001 :
15
#765000
05
#770000
b1 /
b10101 $
b10101 8
b10100 2
b10101 :
15
#775000
05
#780000
b10111 ;
b10111 $
b10111 8
b10110 2
15
#785000
05
#790000
b110 ;
b11001 /
b100110 $
b100110 8
b1101 2
b10111 :
15
#795000
05
#800000
b10101 ;
b11000 /
b110101 $
b110101 8
b11101 2
b110 :
15
#805000
05
#810000
b10010 ;
b11 /
b10010 $
b10010 8
b1111 2
b10101 :
15
#815000
05
#820000
b11011 ;
b1 /
b11011 $
b11011 8
b11010 2
b10010 :
15
#825000
05
#830000
b1010 ;
b101010 $
b101010 8
b10000 /
b11011 :
15
#835000
05
#840000
b10101 ;
b1111 /
b10101 $
b10101 8
b110 2
b1010 :
15
#845000
05
#850000
b1001 ;
b10101 /
b101001 $
b101001 8
b10100 2
b10101 :
15
#855000
05
#860000
b101 ;
b100101 $
b100101 8
b10000 2
b1001 :
15
#865000
05
#870000
b1010 ;
b10011 /
b101010 $
b101010 8
b10111 2
b101 :
15
#875000
05
#880000
b1101 ;
b10100 /
b101101 $
b101101 8
b11001 2
b1010 :
15
#885000
05
#890000
b11010 /
b101101 $
b101101 8
b10011 2
b1101 :
15
#895000
05
#900000
b11 ;
b1000 /
b100011 $
b100011 8
b11011 2
15
#905000
05
#910000
b1011 ;
b10111 /
b101011 $
b101011 8
b10100 2
b11 :
15
#915000
05
#920000
b11 /
b1011 $
b1011 8
b1000 2
b1011 :
15
#925000
05
#930000
b10000 ;
b1111 /
b10000 $
b10000 8
b1 2
15
#935000
05
#940000
b11 ;
b11101 /
b100011 $
b100011 8
b110 2
b10000 :
15
#945000
05
#950000
b10 ;
b0 /
b10 $
b10 8
b10 2
b11 :
15
#955000
05
#960000
b11011 ;
b1011 /
b11011 $
b11011 8
b10000 2
b10 :
15
#965000
05
#970000
b101 ;
b10011 /
b100101 $
b100101 8
b10010 2
b11011 :
15
#975000
05
#980000
b1000 ;
b1001 /
b101000 $
b101000 8
b11111 2
b101 :
15
#985000
05
#990000
b110 ;
b11110 /
b100110 $
b100110 8
b1000 2
b1000 :
15
#995000
05
#1000000
b10000 ;
b1111 /
b10000 $
b10000 8
b1 2
b110 :
15
#1005000
05
#1010000
0=
0#
0-
0.
0+
0"
0,
01
04
b10000 :
15
#1015000
05
#1020000
0)
1(
0&
0!
1%
0<
15
